{
  "BurstVersion": "f95137a4-a8d7-47bb-ac81-4ce8830deb34",
  "Assemblies": [
    {
      "FullName": "Unity.Burst, Version=0.0.0.0, Culture=neutral, PublicKeyToken=null",
      "LastWriteTime": "2022-04-03T12:11:04Z"
    },
    {
      "FullName": "netstandard, Version=2.0.0.0, Culture=neutral, PublicKeyToken=cc7b13ffcd2ddd51",
      "LastWriteTime": "2021-10-25T12:04:37Z"
    },
    {
      "FullName": "mscorlib, Version=4.0.0.0, Culture=neutral, PublicKeyToken=b77a5c561934e089",
      "LastWriteTime": "2021-10-25T12:04:37Z"
    },
    {
      "FullName": "Unity.Collections, Version=0.0.0.0, Culture=neutral, PublicKeyToken=null",
      "LastWriteTime": "2022-04-03T12:11:07Z"
    },
    {
      "FullName": "UnityEngine.CoreModule, Version=0.0.0.0, Culture=neutral, PublicKeyToken=null",
      "LastWriteTime": "2021-10-25T12:04:36Z"
    },
    {
      "FullName": "mscorlib, Version=2.0.0.0, Culture=neutral, PublicKeyToken=b77a5c561934e089",
      "LastWriteTime": "2021-10-25T12:04:37Z"
    },
    {
      "FullName": "Unity.Mathematics, Version=1.0.0.0, Culture=neutral, PublicKeyToken=null",
      "LastWriteTime": "2022-04-03T12:11:04Z"
    },
    {
      "FullName": "Unity.Burst.Unsafe, Version=4.0.5.0, Culture=neutral, PublicKeyToken=null",
      "LastWriteTime": "2021-05-17T23:45:48Z"
    },
    {
      "FullName": "System.Runtime, Version=4.0.0.0, Culture=neutral, PublicKeyToken=b03f5f7f11d50a3a",
      "LastWriteTime": "2021-10-25T12:04:37Z"
    }
  ],
  "Functions": [
    {
      "FullName": "Unity.Burst.Intrinsics.X86, Unity.Burst, Version=0.0.0.0, Culture=neutral, PublicKeyToken=null::DoGetCSRTrampoline()",
      "ModuleOptionsHash": 1809861571778145175,
      "ModuleHash": "95670c89a75ea47d399382373362a3b9",
      "LinkName": "CDCA4A5193BE5947",
      "AssemblyDependencyIndices": [
        0,
        1,
        2
      ]
    },
    {
      "FullName": "Unity.Burst.Intrinsics.X86, Unity.Burst, Version=0.0.0.0, Culture=neutral, PublicKeyToken=null::DoSetCSRTrampoline(System.Int32, mscorlib, Version=4.0.0.0, Culture=neutral, PublicKeyToken=b77a5c561934e089)",
      "ModuleOptionsHash": 1809861571778145175,
      "ModuleHash": "faab0c48ff37209ee596b396066d9e55",
      "LinkName": "801E9A000BB37B05",
      "AssemblyDependencyIndices": [
        0,
        1,
        2
      ]
    },
    {
      "FullName": "Unity.Collections.AllocatorManager+SlabAllocator, Unity.Collections, Version=0.0.0.0, Culture=neutral, PublicKeyToken=null::Try(System.IntPtr, mscorlib, Version=4.0.0.0, Culture=neutral, PublicKeyToken=b77a5c561934e089|Unity.Collections.AllocatorManager+Block&, Unity.Collections, Version=0.0.0.0, Culture=neutral, PublicKeyToken=null)",
      "ModuleOptionsHash": 1809861571778145175,
      "ModuleHash": "9d953c4566642f89d6fb7460cac22a54",
      "LinkName": "8CC3C64CA4A3FEDE",
      "AssemblyDependencyIndices": [
        3,
        1,
        2,
        0,
        4,
        5,
        6
      ]
    },
    {
      "FullName": "Unity.Collections.AllocatorManager+StackAllocator, Unity.Collections, Version=0.0.0.0, Culture=neutral, PublicKeyToken=null::Try(System.IntPtr, mscorlib, Version=4.0.0.0, Culture=neutral, PublicKeyToken=b77a5c561934e089|Unity.Collections.AllocatorManager+Block&, Unity.Collections, Version=0.0.0.0, Culture=neutral, PublicKeyToken=null)",
      "ModuleOptionsHash": 1809861571778145175,
      "ModuleHash": "d074bc78f66b2209861bba4d2858f059",
      "LinkName": "31D71C750A9E4345",
      "AssemblyDependencyIndices": [
        3,
        1,
        2,
        0
      ]
    },
    {
      "FullName": "Unity.Collections.xxHash3, Unity.Collections, Version=0.0.0.0, Culture=neutral, PublicKeyToken=null::_mono_to_burst_Hash128Long(System.Byte*, mscorlib, Version=4.0.0.0, Culture=neutral, PublicKeyToken=b77a5c561934e089|System.Byte*, mscorlib, Version=4.0.0.0, Culture=neutral, PublicKeyToken=b77a5c561934e089|System.Int64, mscorlib, Version=4.0.0.0, Culture=neutral, PublicKeyToken=b77a5c561934e089|System.Byte*, mscorlib, Version=4.0.0.0, Culture=neutral, PublicKeyToken=b77a5c561934e089|Unity.Mathematics.uint4&, Unity.Mathematics, Version=1.0.0.0, Culture=neutral, PublicKeyToken=null)",
      "ModuleOptionsHash": 1809861571778145175,
      "ModuleHash": "eec2eb09d3a868f7431e68f5002f8cb9",
      "LinkName": "652A50F98488BE6F",
      "AssemblyDependencyIndices": [
        3,
        1,
        2,
        6,
        0,
        4,
        5
      ]
    },
    {
      "FullName": "Unity.Collections.xxHash3, Unity.Collections, Version=0.0.0.0, Culture=neutral, PublicKeyToken=null::_mono_to_burst_Hash64Long(System.Byte*, mscorlib, Version=4.0.0.0, Culture=neutral, PublicKeyToken=b77a5c561934e089|System.Byte*, mscorlib, Version=4.0.0.0, Culture=neutral, PublicKeyToken=b77a5c561934e089|System.Int64, mscorlib, Version=4.0.0.0, Culture=neutral, PublicKeyToken=b77a5c561934e089|System.Byte*, mscorlib, Version=4.0.0.0, Culture=neutral, PublicKeyToken=b77a5c561934e089|System.UInt64&, mscorlib, Version=4.0.0.0, Culture=neutral, PublicKeyToken=b77a5c561934e089)",
      "ModuleOptionsHash": 1809861571778145175,
      "ModuleHash": "4f9d14ce961ad6591f8ba948758fbd57",
      "LinkName": "C86228259FBD2D15",
      "AssemblyDependencyIndices": [
        3,
        1,
        2,
        0,
        4,
        5
      ]
    },
    {
      "FullName": "Unity.Jobs.IJobExtensions+JobStruct`1[[Unity.Collections.NativeListDisposeJob, Unity.Collections, Version=0.0.0.0, Culture=neutral, PublicKeyToken=null]], UnityEngine.CoreModule, Version=0.0.0.0, Culture=neutral, PublicKeyToken=null::Execute(Unity.Collections.NativeListDisposeJob&, Unity.Collections, Version=0.0.0.0, Culture=neutral, PublicKeyToken=null|System.IntPtr, mscorlib, Version=4.0.0.0, Culture=neutral, PublicKeyToken=b77a5c561934e089|System.IntPtr, mscorlib, Version=4.0.0.0, Culture=neutral, PublicKeyToken=b77a5c561934e089|Unity.Jobs.LowLevel.Unsafe.JobRanges&, UnityEngine.CoreModule, Version=0.0.0.0, Culture=neutral, PublicKeyToken=null|System.Int32, mscorlib, Version=4.0.0.0, Culture=neutral, PublicKeyToken=b77a5c561934e089)",
      "ModuleOptionsHash": 1809861571778145175,
      "ModuleHash": "079f4661ce84cdcb2a8a10b3f3433cef",
      "LinkName": "352B6D5D03F8F621",
      "AssemblyDependencyIndices": [
        4,
        3,
        5,
        1,
        2,
        6,
        0,
        7,
        8
      ]
    },
    {
      "FullName": "Unity.Jobs.IJobExtensions+JobStruct`1[[Unity.Collections.NativeQueueDisposeJob, Unity.Collections, Version=0.0.0.0, Culture=neutral, PublicKeyToken=null]], UnityEngine.CoreModule, Version=0.0.0.0, Culture=neutral, PublicKeyToken=null::Execute(Unity.Collections.NativeQueueDisposeJob&, Unity.Collections, Version=0.0.0.0, Culture=neutral, PublicKeyToken=null|System.IntPtr, mscorlib, Version=4.0.0.0, Culture=neutral, PublicKeyToken=b77a5c561934e089|System.IntPtr, mscorlib, Version=4.0.0.0, Culture=neutral, PublicKeyToken=b77a5c561934e089|Unity.Jobs.LowLevel.Unsafe.JobRanges&, UnityEngine.CoreModule, Version=0.0.0.0, Culture=neutral, PublicKeyToken=null|System.Int32, mscorlib, Version=4.0.0.0, Culture=neutral, PublicKeyToken=b77a5c561934e089)",
      "ModuleOptionsHash": 1809861571778145175,
      "ModuleHash": "49d99c16bce740f00c8506b7c994b353",
      "LinkName": "8F02018D2DAA4F36",
      "AssemblyDependencyIndices": [
        4,
        3,
        5,
        1,
        2,
        6,
        0,
        7,
        8
      ]
    },
    {
      "FullName": "Unity.Jobs.IJobExtensions+JobStruct`1[[Unity.Collections.NativeReferenceDisposeJob, Unity.Collections, Version=0.0.0.0, Culture=neutral, PublicKeyToken=null]], UnityEngine.CoreModule, Version=0.0.0.0, Culture=neutral, PublicKeyToken=null::Execute(Unity.Collections.NativeReferenceDisposeJob&, Unity.Collections, Version=0.0.0.0, Culture=neutral, PublicKeyToken=null|System.IntPtr, mscorlib, Version=4.0.0.0, Culture=neutral, PublicKeyToken=b77a5c561934e089|System.IntPtr, mscorlib, Version=4.0.0.0, Culture=neutral, PublicKeyToken=b77a5c561934e089|Unity.Jobs.LowLevel.Unsafe.JobRanges&, UnityEngine.CoreModule, Version=0.0.0.0, Culture=neutral, PublicKeyToken=null|System.Int32, mscorlib, Version=4.0.0.0, Culture=neutral, PublicKeyToken=b77a5c561934e089)",
      "ModuleOptionsHash": 1809861571778145175,
      "ModuleHash": "fa02397fc9a970238e16cc8d02deb4c4",
      "LinkName": "703CA6DADE3415F0",
      "AssemblyDependencyIndices": [
        4,
        3,
        5,
        1,
        2,
        6,
        0,
        7,
        8
      ]
    },
    {
      "FullName": "Unity.Jobs.IJobExtensions+JobStruct`1[[Unity.Collections.NativeStream+ConstructJobList, Unity.Collections, Version=0.0.0.0, Culture=neutral, PublicKeyToken=null]], UnityEngine.CoreModule, Version=0.0.0.0, Culture=neutral, PublicKeyToken=null::Execute(Unity.Collections.NativeStream+ConstructJobList&, Unity.Collections, Version=0.0.0.0, Culture=neutral, PublicKeyToken=null|System.IntPtr, mscorlib, Version=4.0.0.0, Culture=neutral, PublicKeyToken=b77a5c561934e089|System.IntPtr, mscorlib, Version=4.0.0.0, Culture=neutral, PublicKeyToken=b77a5c561934e089|Unity.Jobs.LowLevel.Unsafe.JobRanges&, UnityEngine.CoreModule, Version=0.0.0.0, Culture=neutral, PublicKeyToken=null|System.Int32, mscorlib, Version=4.0.0.0, Culture=neutral, PublicKeyToken=b77a5c561934e089)",
      "ModuleOptionsHash": 1809861571778145175,
      "ModuleHash": "0c1863668033a7ae4a7924ec3249ddaf",
      "LinkName": "846F65225A066FD6",
      "AssemblyDependencyIndices": [
        4,
        3,
        5,
        1,
        2,
        6,
        0,
        7,
        8
      ]
    },
    {
      "FullName": "Unity.Jobs.IJobExtensions+JobStruct`1[[Unity.Collections.NativeStream+ConstructJob, Unity.Collections, Version=0.0.0.0, Culture=neutral, PublicKeyToken=null]], UnityEngine.CoreModule, Version=0.0.0.0, Culture=neutral, PublicKeyToken=null::Execute(Unity.Collections.NativeStream+ConstructJob&, Unity.Collections, Version=0.0.0.0, Culture=neutral, PublicKeyToken=null|System.IntPtr, mscorlib, Version=4.0.0.0, Culture=neutral, PublicKeyToken=b77a5c561934e089|System.IntPtr, mscorlib, Version=4.0.0.0, Culture=neutral, PublicKeyToken=b77a5c561934e089|Unity.Jobs.LowLevel.Unsafe.JobRanges&, UnityEngine.CoreModule, Version=0.0.0.0, Culture=neutral, PublicKeyToken=null|System.Int32, mscorlib, Version=4.0.0.0, Culture=neutral, PublicKeyToken=b77a5c561934e089)",
      "ModuleOptionsHash": 1809861571778145175,
      "ModuleHash": "a850f5eea9536ef9c7170f713514877c",
      "LinkName": "1F3827F16D435181",
      "AssemblyDependencyIndices": [
        4,
        3,
        5,
        1,
        2,
        6,
        0,
        7,
        8
      ]
    },
    {
      "FullName": "Unity.Jobs.IJobExtensions+JobStruct`1[[Unity.Collections.LowLevel.Unsafe.UnsafeHashMapDataDisposeJob, Unity.Collections, Version=0.0.0.0, Culture=neutral, PublicKeyToken=null]], UnityEngine.CoreModule, Version=0.0.0.0, Culture=neutral, PublicKeyToken=null::Execute(Unity.Collections.LowLevel.Unsafe.UnsafeHashMapDataDisposeJob&, Unity.Collections, Version=0.0.0.0, Culture=neutral, PublicKeyToken=null|System.IntPtr, mscorlib, Version=4.0.0.0, Culture=neutral, PublicKeyToken=b77a5c561934e089|System.IntPtr, mscorlib, Version=4.0.0.0, Culture=neutral, PublicKeyToken=b77a5c561934e089|Unity.Jobs.LowLevel.Unsafe.JobRanges&, UnityEngine.CoreModule, Version=0.0.0.0, Culture=neutral, PublicKeyToken=null|System.Int32, mscorlib, Version=4.0.0.0, Culture=neutral, PublicKeyToken=b77a5c561934e089)",
      "ModuleOptionsHash": 1809861571778145175,
      "ModuleHash": "a15909117b733b5e3e87795ad76ab85e",
      "LinkName": "C0BB42F31A3089F2",
      "AssemblyDependencyIndices": [
        4,
        3,
        5,
        1,
        2,
        6,
        0,
        7,
        8
      ]
    },
    {
      "FullName": "Unity.Jobs.IJobExtensions+JobStruct`1[[Unity.Collections.LowLevel.Unsafe.UnsafeHashMapDisposeJob, Unity.Collections, Version=0.0.0.0, Culture=neutral, PublicKeyToken=null]], UnityEngine.CoreModule, Version=0.0.0.0, Culture=neutral, PublicKeyToken=null::Execute(Unity.Collections.LowLevel.Unsafe.UnsafeHashMapDisposeJob&, Unity.Collections, Version=0.0.0.0, Culture=neutral, PublicKeyToken=null|System.IntPtr, mscorlib, Version=4.0.0.0, Culture=neutral, PublicKeyToken=b77a5c561934e089|System.IntPtr, mscorlib, Version=4.0.0.0, Culture=neutral, PublicKeyToken=b77a5c561934e089|Unity.Jobs.LowLevel.Unsafe.JobRanges&, UnityEngine.CoreModule, Version=0.0.0.0, Culture=neutral, PublicKeyToken=null|System.Int32, mscorlib, Version=4.0.0.0, Culture=neutral, PublicKeyToken=b77a5c561934e089)",
      "ModuleOptionsHash": 1809861571778145175,
      "ModuleHash": "d7add5cf2b4dc85ffc18170a08bc3a16",
      "LinkName": "0AFB48C3B9CA6ECF",
      "AssemblyDependencyIndices": [
        4,
        3,
        5,
        1,
        2,
        6,
        0,
        7,
        8
      ]
    },
    {
      "FullName": "Unity.Jobs.IJobExtensions+JobStruct`1[[Unity.Collections.LowLevel.Unsafe.UnsafeDisposeJob, Unity.Collections, Version=0.0.0.0, Culture=neutral, PublicKeyToken=null]], UnityEngine.CoreModule, Version=0.0.0.0, Culture=neutral, PublicKeyToken=null::Execute(Unity.Collections.LowLevel.Unsafe.UnsafeDisposeJob&, Unity.Collections, Version=0.0.0.0, Culture=neutral, PublicKeyToken=null|System.IntPtr, mscorlib, Version=4.0.0.0, Culture=neutral, PublicKeyToken=b77a5c561934e089|System.IntPtr, mscorlib, Version=4.0.0.0, Culture=neutral, PublicKeyToken=b77a5c561934e089|Unity.Jobs.LowLevel.Unsafe.JobRanges&, UnityEngine.CoreModule, Version=0.0.0.0, Culture=neutral, PublicKeyToken=null|System.Int32, mscorlib, Version=4.0.0.0, Culture=neutral, PublicKeyToken=b77a5c561934e089)",
      "ModuleOptionsHash": 1809861571778145175,
      "ModuleHash": "f2e28c17dcbe16814ea6787fc8446d36",
      "LinkName": "5AAE3265C3BCB248",
      "AssemblyDependencyIndices": [
        4,
        3,
        5,
        1,
        2,
        6,
        0,
        7,
        8
      ]
    },
    {
      "FullName": "Unity.Jobs.IJobExtensions+JobStruct`1[[Unity.Collections.LowLevel.Unsafe.UnsafeStream+DisposeJob, Unity.Collections, Version=0.0.0.0, Culture=neutral, PublicKeyToken=null]], UnityEngine.CoreModule, Version=0.0.0.0, Culture=neutral, PublicKeyToken=null::Execute(Unity.Collections.LowLevel.Unsafe.UnsafeStream+DisposeJob&, Unity.Collections, Version=0.0.0.0, Culture=neutral, PublicKeyToken=null|System.IntPtr, mscorlib, Version=4.0.0.0, Culture=neutral, PublicKeyToken=b77a5c561934e089|System.IntPtr, mscorlib, Version=4.0.0.0, Culture=neutral, PublicKeyToken=b77a5c561934e089|Unity.Jobs.LowLevel.Unsafe.JobRanges&, UnityEngine.CoreModule, Version=0.0.0.0, Culture=neutral, PublicKeyToken=null|System.Int32, mscorlib, Version=4.0.0.0, Culture=neutral, PublicKeyToken=b77a5c561934e089)",
      "ModuleOptionsHash": 1809861571778145175,
      "ModuleHash": "a12da8d915d1210d470af97925f3ef7d",
      "LinkName": "A8134E26EAC44A70",
      "AssemblyDependencyIndices": [
        4,
        3,
        5,
        1,
        2,
        6,
        0,
        7,
        8
      ]
    },
    {
      "FullName": "Unity.Jobs.IJobExtensions+JobStruct`1[[Unity.Collections.LowLevel.Unsafe.UnsafeStream+ConstructJobList, Unity.Collections, Version=0.0.0.0, Culture=neutral, PublicKeyToken=null]], UnityEngine.CoreModule, Version=0.0.0.0, Culture=neutral, PublicKeyToken=null::Execute(Unity.Collections.LowLevel.Unsafe.UnsafeStream+ConstructJobList&, Unity.Collections, Version=0.0.0.0, Culture=neutral, PublicKeyToken=null|System.IntPtr, mscorlib, Version=4.0.0.0, Culture=neutral, PublicKeyToken=b77a5c561934e089|System.IntPtr, mscorlib, Version=4.0.0.0, Culture=neutral, PublicKeyToken=b77a5c561934e089|Unity.Jobs.LowLevel.Unsafe.JobRanges&, UnityEngine.CoreModule, Version=0.0.0.0, Culture=neutral, PublicKeyToken=null|System.Int32, mscorlib, Version=4.0.0.0, Culture=neutral, PublicKeyToken=b77a5c561934e089)",
      "ModuleOptionsHash": 1809861571778145175,
      "ModuleHash": "db50238fa5ee5176092fbdc421709392",
      "LinkName": "18F4EDFD51FD6159",
      "AssemblyDependencyIndices": [
        4,
        3,
        5,
        1,
        2,
        6,
        0,
        7,
        8
      ]
    },
    {
      "FullName": "Unity.Jobs.IJobExtensions+JobStruct`1[[Unity.Collections.LowLevel.Unsafe.UnsafeStream+ConstructJob, Unity.Collections, Version=0.0.0.0, Culture=neutral, PublicKeyToken=null]], UnityEngine.CoreModule, Version=0.0.0.0, Culture=neutral, PublicKeyToken=null::Execute(Unity.Collections.LowLevel.Unsafe.UnsafeStream+ConstructJob&, Unity.Collections, Version=0.0.0.0, Culture=neutral, PublicKeyToken=null|System.IntPtr, mscorlib, Version=4.0.0.0, Culture=neutral, PublicKeyToken=b77a5c561934e089|System.IntPtr, mscorlib, Version=4.0.0.0, Culture=neutral, PublicKeyToken=b77a5c561934e089|Unity.Jobs.LowLevel.Unsafe.JobRanges&, UnityEngine.CoreModule, Version=0.0.0.0, Culture=neutral, PublicKeyToken=null|System.Int32, mscorlib, Version=4.0.0.0, Culture=neutral, PublicKeyToken=b77a5c561934e089)",
      "ModuleOptionsHash": 1809861571778145175,
      "ModuleHash": "7c4caa30afbbcf2486c5d4b285d774e8",
      "LinkName": "EC65C6FB1FDE45E6",
      "AssemblyDependencyIndices": [
        4,
        3,
        5,
        1,
        2,
        6,
        0,
        7,
        8
      ]
    },
    {
      "FullName": "Unity.Collections.RewindableAllocator, Unity.Collections, Version=0.0.0.0, Culture=neutral, PublicKeyToken=null::Try(System.IntPtr, mscorlib, Version=4.0.0.0, Culture=neutral, PublicKeyToken=b77a5c561934e089|Unity.Collections.AllocatorManager+Block&, Unity.Collections, Version=0.0.0.0, Culture=neutral, PublicKeyToken=null)",
      "ModuleOptionsHash": 1809861571778145175,
      "ModuleHash": "67f7e4a49bed8f552fa2fa41fb908171",
      "LinkName": "806B2D5E79A7443E",
      "AssemblyDependencyIndices": [
        3,
        1,
        2,
        0,
        6,
        4,
        5,
        7,
        8
      ]
    }
  ]
}